chip_tb.vcd
$date
     May 19, 2025       14:13:05
$end

$version
 SystemC 3.0.1-Accellera --- May  7 2025 12:21:27
$end

$timescale
     1 ps
$end

$scope module SystemC $end
$var wire    1  aaaaa  clk       $end
$var wire    1  aaaab  reset       $end
$var wire   32  aaaac  PC [31:0]  $end
$var wire   32  aaaad  INSTRUCTION [31:0]  $end
$upscope $end
$enddefinitions  $end

$comment
All initial values are dumped below at time 2e-09 sec = 2000 timescale units.
$end

$dumpvars
1aaaaa
0aaaab
b0 aaaac
b0 aaaad
$end

#5000
0aaaaa

#10000
1aaaaa

#15000
0aaaaa

#20000
1aaaaa
b100 aaaac
b10011100000001000000000000001010 aaaad

#25000
0aaaaa

#30000
1aaaaa
b1000 aaaac
b10011100010010000000000000010100 aaaad

#35000
0aaaaa

#40000
1aaaaa
b1100 aaaac
b1100010010001100000000000000 aaaad

#45000
0aaaaa

#50000
1aaaaa
b10000 aaaac
b11111100000000000000000000000010 aaaad

#55000
0aaaaa

#60000
1aaaaa
b11000 aaaac
b10001000000100000000000000001111 aaaad

#65000
0aaaaa

#70000
1aaaaa
b11100 aaaac
b10100000110100000000000000000101 aaaad

#75000
0aaaaa

#80000
1aaaaa
b100000 aaaac
b0 aaaad

#85000
0aaaaa

#90000
1aaaaa
b100100 aaaac

#95000
0aaaaa

#100000
1aaaaa
b101000 aaaac

#105000
0aaaaa

#110000
1aaaaa
b101100 aaaac

#115000
0aaaaa

#120000
1aaaaa
b110000 aaaac

#125000
0aaaaa

#130000
1aaaaa
b110100 aaaac

#135000
0aaaaa

#140000
1aaaaa
b111000 aaaac

#145000
0aaaaa

#150000
1aaaaa
b111100 aaaac

#155000
0aaaaa

#160000
1aaaaa
b1000000 aaaac

#165000
0aaaaa

#170000
1aaaaa
b1000100 aaaac

#175000
0aaaaa

#180000
1aaaaa
b1001000 aaaac

#185000
0aaaaa

#190000
1aaaaa
b1001100 aaaac

