chip_tb.vcd
$date
     May 19, 2025       23:47:17
$end

$version
 SystemC 3.0.1-Accellera --- May 10 2025 18:12:02
$end

$timescale
     1 ps
$end

$scope module SystemC $end
$var wire    1  aaaaa  clk       $end
$var wire    1  aaaab  reset       $end
$var wire   32  aaaac  PC [31:0]  $end
$var wire   32  aaaad  INSTRUCTION [31:0]  $end
$var wire   32  aaaae  mem_address [31:0]  $end
$var wire   32  aaaaf  mem_write_data [31:0]  $end
$var wire    1  aaaag  mem_write_signal       $end
$var wire    1  aaaah  mem_read_signal       $end
$var wire   32  aaaai  mem_data_out [31:0]  $end
$var wire   32  aaaaj  mem_store_data [31:0]  $end
$var wire   32  aaaak  mem_address [31:0]  $end
$upscope $end
$enddefinitions  $end

$comment
All initial values are dumped below at time 2e-09 sec = 2000 timescale units.
$end

$dumpvars
1aaaaa
0aaaab
b0 aaaac
b0 aaaad
b0 aaaae
b0 aaaaf
0aaaag
0aaaah
b0 aaaai
b0 aaaaj
b0 aaaak
$end

#5000
0aaaaa

#10000
1aaaaa

#15000
0aaaaa

#20000
1aaaaa
b100 aaaac
b10011100000001000000000000000101 aaaad

#25000
0aaaaa

#30000
1aaaaa
b1000 aaaac
b10100000010010000000000000000010 aaaad

#35000
0aaaaa

#40000
1aaaaa
b1100 aaaac
b10001000100011000000000000000111 aaaad
b101 aaaae
b101 aaaak

#45000
0aaaaa

#50000
1aaaaa
b10000 aaaac
b10000100110100000000000000000001 aaaad
b11 aaaae
b11 aaaak

#55000
0aaaaa

#60000
1aaaaa
b10100 aaaac
b10010000010010000000000000000000 aaaad
b111 aaaae
b111 aaaak

#65000
0aaaaa

#70000
1aaaaa
b11000 aaaac
b10010000100001000000000000000000 aaaad
b110 aaaae
b110 aaaak

#75000
0aaaaa

#80000
1aaaaa
b11100 aaaac
b10010000100010000000000000000000 aaaad
b1 aaaae
b101 aaaaf
b101 aaaaj
b1 aaaak

#85000
0aaaaa

#90000
1aaaaa
b100000 aaaac
b10010011000000000000000 aaaad
b11 aaaaf
b11 aaaaj

#95000
0aaaaa

#100000
1aaaaa
b100100 aaaac
b101100011011100000000000000 aaaad

#105000
0aaaaa

#110000
1aaaaa
b101000 aaaac
b1001110100100000000000000000 aaaad
b0 aaaae
b101 aaaaf
b101 aaaaj
b0 aaaak

#115000
0aaaaa

#120000
1aaaaa
b101100 aaaac
b1110000001100100000000000000 aaaad
b111 aaaae
b0 aaaaf
b0 aaaaj
b111 aaaak

#125000
0aaaaa

#130000
1aaaaa
b110000 aaaac
b10010010010101000000000000000 aaaad

#135000
0aaaaa

#140000
1aaaaa
b110100 aaaac
b10100100101100000000000000 aaaad
b1 aaaae
b1 aaaak

#145000
0aaaaa

#150000
1aaaaa
b111000 aaaac
b10100010111100000000000000000010 aaaad
b0 aaaae
b0 aaaak

#155000
0aaaaa

#160000
1aaaaa
b111100 aaaac
b10000111001101000000000000000001 aaaad

#165000
0aaaaa

#170000
1aaaaa
b1000000 aaaac
b1011011101111000000000000000 aaaad
b11111111111111111111111111111110 aaaae
b11111111111111111111111111111110 aaaak

#175000
0aaaaa

#180000
1aaaaa
b1000100 aaaac
b10011111101111000000000000000001 aaaad
b11111111111111111111111111111111 aaaae
b11111111111111111111111111111111 aaaak

#185000
0aaaaa

#190000
1aaaaa
b1001000 aaaac
b10011100000010000000000001100100 aaaad

#195000
0aaaaa

#200000
1aaaaa
b1001100 aaaac
b10011100000011000000000000001010 aaaad
b0 aaaae
b0 aaaak

#205000
0aaaaa

#210000
1aaaaa
b1010000 aaaac
b10100100100011000000000000000000 aaaad
b1100100 aaaae
b1100100 aaaak

#215000
0aaaaa

#220000
1aaaaa
b1010100 aaaac
b10011001000011000000000000000000 aaaad
b1010 aaaae
b1010 aaaak

#225000
0aaaaa

#230000
1aaaaa
b1011000 aaaac
b10011101000101000000000000000101 aaaad
b1100100 aaaaf
1aaaag
b1100100 aaaaj

#235000
0aaaaa

#240000
1aaaaa
b1011100 aaaac
b10011100000001000000000000001010 aaaad
b110 aaaaf
0aaaag
1aaaah
b1100100 aaaai
b110 aaaaj

#245000
0aaaaa

#250000
1aaaaa
b1100000 aaaac
b10011100010010000000000000010100 aaaad
b1111 aaaae
0aaaah
b1111 aaaak

#255000
0aaaaa

#260000
1aaaaa
b1100100 aaaac
b1100010010001100000000000000 aaaad
b1010 aaaae
b0 aaaaf
b0 aaaaj
b1010 aaaak

#265000
0aaaaa

#270000
1aaaaa
b1101000 aaaac
b11111100000000000000000000000010 aaaad
b11110 aaaae
b1 aaaaf
b1 aaaaj
b11110 aaaak

#275000
0aaaaa

#280000
1aaaaa
b1110000 aaaac
b0 aaaad
b1010 aaaae
b1010 aaaak

#285000
0aaaaa

#290000
1aaaaa
b1110100 aaaac
b10100000110100000000000000000101 aaaad
b0 aaaae
b0 aaaaf
b0 aaaaj
b0 aaaak

#295000
0aaaaa

#300000
1aaaaa
b1111000 aaaac
b10010000110100000000000000000101 aaaad

#305000
0aaaaa

#310000
1aaaaa
b1111100 aaaac
b101 aaaae
b1010 aaaaf
b1010 aaaaj
b101 aaaak

#315000
0aaaaa

#320000
1aaaaa
b10000000 aaaac
b1 aaaae
b1 aaaak

#325000
0aaaaa

#330000
1aaaaa
b10000100 aaaac
b10011100010101000000000000000101 aaaad

#335000
0aaaaa

#340000
1aaaaa
b10001000 aaaac
b0 aaaad

#345000
0aaaaa

#350000
1aaaaa
b10001100 aaaac
b1111 aaaae
b1111 aaaak

#355000
0aaaaa

#360000
1aaaaa
b10010000 aaaac
b0 aaaae
b0 aaaaf
b0 aaaaj
b0 aaaak

#365000
0aaaaa

#370000
1aaaaa
b10010100 aaaac

#375000
0aaaaa

#380000
1aaaaa
b10011000 aaaac

#385000
0aaaaa

#390000
1aaaaa
b10011100 aaaac

#395000
0aaaaa

#400000
1aaaaa
b10100000 aaaac

#405000
0aaaaa

#410000
1aaaaa
b10100100 aaaac

#415000
0aaaaa

#420000
1aaaaa
b10101000 aaaac

#425000
0aaaaa

#430000
1aaaaa
b10101100 aaaac

#435000
0aaaaa

#440000
1aaaaa
b10110000 aaaac

#445000
0aaaaa

#450000
1aaaaa
b10110100 aaaac

#455000
0aaaaa

#460000
1aaaaa
b10111000 aaaac

#465000
0aaaaa

#470000
1aaaaa
b10111100 aaaac

#475000
0aaaaa

#480000
1aaaaa
b11000000 aaaac

#485000
0aaaaa

#490000
1aaaaa
b11000100 aaaac

#495000
0aaaaa

#500000
1aaaaa
b11001000 aaaac

#505000
0aaaaa

#510000
1aaaaa
b11001100 aaaac

#515000
0aaaaa

#520000
1aaaaa
b11010000 aaaac

#525000
0aaaaa

#530000
1aaaaa
b11010100 aaaac

#535000
0aaaaa

#540000
1aaaaa
b11011000 aaaac

#545000
0aaaaa

#550000
1aaaaa
b11011100 aaaac

#555000
0aaaaa

#560000
1aaaaa
b11100000 aaaac

#565000
0aaaaa

#570000
1aaaaa
b11100100 aaaac

#575000
0aaaaa

#580000
1aaaaa
b11101000 aaaac

#585000
0aaaaa

#590000
1aaaaa
b11101100 aaaac

